{
  "project_info": {
    "project_number": "888010124893",
    "firebase_url": "https://healthwear-bb1d2.firebaseio.com",
    "project_id": "healthwear-bb1d2",
    "storage_bucket": "healthwear-bb1d2.appspot.com"
  },
  "client": [
    {
      "client_info": {
        "mobilesdk_app_id": "1:888010124893:android:8c929734b1abc9d50fe7b4",
        "android_client_info": {
          "package_name": "com.example.healthwear"
        }
      },
      "oauth_client": [
        {
          "client_id": "888010124893-0q3ek4kkapsnjm4dvhgibledtbjrdpro.apps.googleusercontent.com",
          "client_type": 1,
          "android_info": {
            "package_name": "com.example.healthwear",
            "certificate_hash": "7b33a1185f1ee78217b49810197350c28cb3d548"
          }
        },
        {
          "client_id": "888010124893-5r95ivf65aorm7drvbj30jg465cujbo7.apps.googleusercontent.com",
          "client_type": 3
        }
      ],
      "api_key": [
        {
          "current_key": "AIzaSyBsu_oBD1Jq58UKbJVLWB1rYF2r3WRE8dw"
        }
      ],
      "services": {
        "appinvite_service": {
          "other_platform_oauth_client": [
            {
              "client_id": "888010124893-5r95ivf65aorm7drvbj30jg465cujbo7.apps.googleusercontent.com",
              "client_type": 3
            }
          ]
        }
      }
    },
    {
      "client_info": {
        "mobilesdk_app_id": "1:888010124893:android:2e3a3802c059b96a0fe7b4",
        "android_client_info": {
          "package_name": "com.example.savereaddata"
        }
      },
      "oauth_client": [
        {
          "client_id": "888010124893-fnbpgrmmr3orma2gtq7r1cvu4j5vgpgv.apps.googleusercontent.com",
          "client_type": 1,
          "android_info": {
            "package_name": "com.example.savereaddata",
            "certificate_hash": "7b33a1185f1ee78217b49810197350c28cb3d548"
          }
        },
        {
          "client_id": "888010124893-5r95ivf65aorm7drvbj30jg465cujbo7.apps.googleusercontent.com",
          "client_type": 3
        }
      ],
      "api_key": [
        {
          "current_key": "AIzaSyBsu_oBD1Jq58UKbJVLWB1rYF2r3WRE8dw"
        }
      ],
      "services": {
        "appinvite_service": {
          "other_platform_oauth_client": [
            {
              "client_id": "888010124893-5r95ivf65aorm7drvbj30jg465cujbo7.apps.googleusercontent.com",
              "client_type": 3
            }
          ]
        }
      }
    }
  ],
  "configuration_version": "1"
}